% Accelerometer logfile
% 1 	Time (sec)
% 2-4 	Accelerometer (x,y,z)
1708089712.1790 0.4325 0.0101 -0.9032
1708089712.1903 0.4356 0.0087 -0.9039
1708089712.2017 0.4345 0.0092 -0.8976
1708089712.2144 0.4324 0.0078 -0.9052
1708089712.2266 0.4326 0.0115 -0.9029
1708089712.2381 0.4313 0.0090 -0.8993
1708089712.2496 0.4301 0.0099 -0.9059
1708089712.2623 0.4349 0.0119 -0.9025
1708089712.2738 0.4339 0.0096 -0.9017
1708089712.2861 0.4327 0.0107 -0.9049
1708089712.2977 0.4340 0.0105 -0.9056
1708089712.3103 0.4338 0.0088 -0.9030
1708089712.3220 0.4311 0.0104 -0.9018
1708089712.3344 0.4326 0.0121 -0.9045
1708089712.3459 0.4330 0.0113 -0.9020
1708089712.3586 0.4313 0.0109 -0.9036
1708089712.3700 0.4325 0.0086 -0.9042
1708089712.3823 0.4316 0.0099 -0.9028
1708089712.3937 0.4325 0.0085 -0.9038
1708089712.4058 0.4339 0.0094 -0.9041
1708089712.4178 0.4325 0.0101 -0.9025
1708089712.4304 0.4345 0.0079 -0.9028
1708089712.4425 0.4307 0.0111 -0.9042
1708089712.4534 0.4330 0.0090 -0.9045
1708089712.4665 0.4320 0.0069 -0.9061
1708089712.4781 0.4311 0.0096 -0.9018
1708089712.4902 0.4325 0.0095 -0.9030
1708089712.5022 0.4304 0.0102 -0.9032
1708089712.5142 0.4313 0.0085 -0.9036
1708089712.5258 0.4336 0.0111 -0.9047
1708089712.5378 0.4323 0.0119 -0.9026
1708089712.5498 0.4344 0.0085 -0.9024
1708089712.5619 0.4324 0.0097 -0.9026
1708089712.5740 0.4345 0.0083 -0.9033
1708089712.5856 0.4324 0.0112 -0.9023
1708089712.5976 0.4327 0.0113 -0.9030
1708089712.6096 0.4313 0.0096 -0.9039
1708089712.6216 0.4310 0.0113 -0.9038
1708089712.6343 0.4331 0.0087 -0.9040
1708089712.6464 0.4321 0.0102 -0.9065
1708089712.6581 0.4342 0.0107 -0.9039
1708089712.6702 0.4315 0.0105 -0.9059
1708089712.6818 0.4312 0.0083 -0.9048
1708089712.6938 0.4323 0.0104 -0.9041
1708089712.7059 0.4341 0.0081 -0.9023
1708089712.7180 0.4345 0.0090 -0.9016
1708089712.7297 0.4345 0.0102 -0.9043
1708089712.7417 0.4327 0.0116 -0.9041
1708089712.7538 0.4339 0.0107 -0.9027
1708089712.7659 0.4320 0.0116 -0.9021
1708089712.7775 0.4334 0.0100 -0.9041
1708089712.7897 0.4301 0.0098 -0.9022
1708089712.8019 0.4322 0.0104 -0.9037
1708089712.8139 0.4323 0.0111 -0.9056
1708089712.8268 0.4330 0.0089 -0.9047
1708089712.8379 0.4324 0.0109 -0.9059
1708089712.8500 0.4330 0.0111 -0.9017
1708089712.8623 0.4325 0.0080 -0.9050
1708089712.8745 0.4319 0.0100 -0.9005
1708089712.8864 0.4329 0.0092 -0.9012
1708089712.8986 0.4311 0.0093 -0.9021
1708089712.9097 0.4316 0.0106 -0.8996
1708089712.9220 0.4351 0.0078 -0.9012
1708089712.9338 0.4307 0.0087 -0.9020
1708089712.9462 0.4322 0.0105 -0.9040
1708089712.9583 0.4317 0.0109 -0.9045
1708089712.9704 0.4319 0.0100 -0.9029
1708089712.9822 0.4332 0.0110 -0.9058
1708089712.9944 0.4320 0.0095 -0.9020
1708089713.0055 0.4329 0.0105 -0.9033
1708089713.0187 0.4337 0.0112 -0.9025
1708089713.0304 0.4322 0.0104 -0.9014
1708089713.0425 0.4332 0.0092 -0.9023
1708089713.0536 0.4311 0.0107 -0.9028
1708089713.0658 0.4318 0.0087 -0.9073
1708089713.0775 0.4336 0.0094 -0.9033
1708089713.0897 0.4321 0.0101 -0.9052
1708089713.1018 0.4331 0.0127 -0.9029
1708089713.1140 0.4332 0.0105 -0.9033
1708089713.1266 0.4331 0.0077 -0.9041
1708089713.1376 0.4336 0.0107 -0.8996
1708089713.1497 0.4338 0.0095 -0.9020
1708089713.1625 0.4307 0.0105 -0.9016
1708089713.1735 0.4315 0.0098 -0.9016
1708089713.1863 0.4330 0.0110 -0.9024
1708089713.1984 0.4327 0.0094 -0.9025
1708089713.2104 0.4316 0.0107 -0.9044
1708089713.2214 0.4338 0.0108 -0.9031
1708089713.2341 0.4323 0.0106 -0.9040
1708089713.2462 0.4315 0.0091 -0.9024
1708089713.2583 0.4325 0.0096 -0.9051
1708089713.2696 0.4333 0.0097 -0.9012
1708089713.2825 0.4302 0.0097 -0.9024
1708089713.2937 0.4315 0.0107 -0.9028
1708089713.3058 0.4315 0.0121 -0.9042
1708089713.3178 0.4327 0.0113 -0.9017
1708089713.3296 0.4324 0.0098 -0.9013
1708089713.3417 0.4332 0.0100 -0.9038
1708089713.3540 0.4326 0.0109 -0.9008
1708089713.3661 0.4318 0.0068 -0.9028
1708089713.3777 0.4332 0.0110 -0.9047
1708089713.3898 0.4323 0.0111 -0.9038
1708089713.4020 0.4320 0.0109 -0.9045
1708089713.4142 0.4339 0.0109 -0.9033
1708089713.4269 0.4324 0.0113 -0.9030
1708089713.4380 0.4344 0.0083 -0.9029
1708089713.4502 0.4324 0.0092 -0.9032
1708089713.4623 0.4317 0.0091 -0.9026
1708089713.4745 0.4295 0.0105 -0.9021
1708089713.4863 0.4318 0.0111 -0.9023
1708089713.4984 0.4338 0.0095 -0.9020
1708089713.5097 0.4347 0.0094 -0.9029
1708089713.5218 0.4346 0.0098 -0.9031
1708089713.5336 0.4322 0.0097 -0.9056
1708089713.5456 0.4326 0.0098 -0.9040
1708089713.5578 0.4312 0.0108 -0.9028
1708089713.5698 0.4329 0.0116 -0.9062
1708089713.5814 0.4320 0.0073 -0.9032
1708089713.5945 0.4329 0.0098 -0.9039
1708089713.6055 0.4326 0.0091 -0.9020
1708089713.6186 0.4308 0.0095 -0.9049
1708089713.6302 0.4311 0.0102 -0.9003
1708089713.6422 0.4316 0.0097 -0.9060
1708089713.6540 0.4322 0.0105 -0.9027
1708089713.6676 0.4323 0.0106 -0.9011
1708089713.6788 0.4304 0.0111 -0.9028
1708089713.6919 0.4322 0.0110 -0.9028
1708089713.7027 0.4334 0.0112 -0.9034
1708089713.7159 0.4314 0.0096 -0.9005
1708089713.7282 0.4333 0.0088 -0.9047
1708089713.7393 0.4319 0.0104 -0.9040
1708089713.7501 0.4327 0.0104 -0.9047
1708089713.7619 0.4325 0.0084 -0.9020
1708089713.7739 0.4343 0.0114 -0.9038
1708089713.7856 0.4328 0.0086 -0.9026
1708089713.7976 0.4306 0.0091 -0.9025
1708089713.8099 0.4324 0.0068 -0.9019
1708089713.8219 0.4334 0.0096 -0.9023
1708089713.8339 0.4330 0.0101 -0.9032
1708089713.8460 0.4332 0.0100 -0.9039
1708089713.8581 0.4320 0.0096 -0.9026
1708089713.8702 0.4306 0.0099 -0.9057
1708089713.8819 0.4316 0.0104 -0.9026
1708089713.8940 0.4303 0.0098 -0.9031
1708089713.9062 0.4315 0.0096 -0.9040
1708089713.9183 0.4319 0.0084 -0.9036
1708089713.9301 0.4333 0.0096 -0.9062
1708089713.9423 0.4329 0.0092 -0.9047
1708089713.9546 0.4342 0.0089 -0.9033
1708089713.9657 0.4293 0.0096 -0.9011
1708089713.9786 0.4333 0.0088 -0.9044
1708089713.9896 0.4304 0.0098 -0.9058
1708089714.0020 0.4332 0.0096 -0.9019
1708089714.0141 0.4337 0.0102 -0.9042
1708089714.0263 0.4335 0.0087 -0.9036
1708089714.0380 0.4341 0.0095 -0.9030
1708089714.0502 0.4314 0.0105 -0.9024
1708089714.0623 0.4352 0.0097 -0.9054
1708089714.0747 0.4317 0.0127 -0.9055
1708089714.0865 0.4335 0.0115 -0.9028
1708089714.0976 0.4307 0.0087 -0.9018
1708089714.1098 0.4320 0.0098 -0.9030
1708089714.1222 0.4330 0.0119 -0.9037
1708089714.1339 0.4324 0.0107 -0.9016
1708089714.1463 0.4312 0.0099 -0.9040
1708089714.1582 0.4329 0.0095 -0.9019
1708089714.1704 0.4337 0.0104 -0.9026
1708089714.1821 0.4309 0.0081 -0.9038
1708089714.1943 0.4340 0.0094 -0.9006
1708089714.2063 0.4327 0.0114 -0.8984
1708089714.2186 0.4327 0.0107 -0.9046
1708089714.2302 0.4325 0.0101 -0.9033
1708089714.2426 0.4337 0.0100 -0.8997
1708089714.2536 0.4323 0.0092 -0.9032
1708089714.2658 0.4327 0.0101 -0.9034
1708089714.2785 0.4338 0.0112 -0.9006
1708089714.2897 0.4333 0.0101 -0.9078
1708089714.3017 0.4341 0.0105 -0.9045
1708089714.3140 0.4311 0.0100 -0.9035
1708089714.3262 0.4316 0.0088 -0.9026
1708089714.3381 0.4326 0.0087 -0.9011
1708089714.3503 0.4325 0.0089 -0.9046
1708089714.3626 0.4326 0.0106 -0.9017
1708089714.3735 0.4326 0.0093 -0.9002
1708089714.3863 0.4335 0.0108 -0.9041
1708089714.3983 0.4322 0.0093 -0.9039
1708089714.4106 0.4328 0.0095 -0.9037
1708089714.4215 0.4310 0.0098 -0.9032
1708089714.4343 0.4319 0.0101 -0.9015
1708089714.4465 0.4333 0.0115 -0.9041
1708089714.4578 0.4336 0.0101 -0.9031
1708089714.4700 0.4319 0.0094 -0.9062
1708089714.4820 0.4325 0.0081 -0.9024
1708089714.4941 0.4353 0.0102 -0.9050
1708089714.5064 0.4320 0.0087 -0.9005
1708089714.5185 0.4324 0.0089 -0.9056
1708089714.5305 0.4336 0.0124 -0.9037
1708089714.5415 0.4324 0.0104 -0.9061
1708089714.5538 0.4320 0.0128 -0.9032
1708089714.5659 0.4326 0.0086 -0.9049
1708089714.5778 0.4311 0.0087 -0.9023
1708089714.5899 0.4310 0.0122 -0.9051
1708089714.6022 0.4332 0.0100 -0.9032
1708089714.6143 0.4325 0.0109 -0.9019
1708089714.6257 0.4312 0.0115 -0.9025
1708089714.6375 0.4359 0.0111 -0.9056
1708089714.6498 0.4332 0.0110 -0.9029
1708089714.6615 0.4336 0.0095 -0.9047
1708089714.6739 0.4353 0.0102 -0.8999
1708089714.6856 0.4334 0.0097 -0.9040
1708089714.6979 0.4309 0.0100 -0.9041
1708089714.7101 0.4317 0.0108 -0.9032
1708089714.7223 0.4338 0.0101 -0.9026
1708089714.7339 0.4343 0.0137 -0.9046
1708089714.7460 0.4312 0.0108 -0.9042
1708089714.7581 0.4307 0.0105 -0.9028
1708089714.7702 0.4326 0.0093 -0.9044
1708089714.7819 0.4312 0.0080 -0.8996
1708089714.7940 0.4317 0.0109 -0.9041
1708089714.8060 0.4319 0.0110 -0.9045
1708089714.8182 0.4331 0.0109 -0.9037
1708089714.8298 0.4324 0.0077 -0.8991
1708089714.8420 0.4311 0.0112 -0.9023
1708089714.8541 0.4346 0.0090 -0.9025
1708089714.8662 0.4322 0.0103 -0.9017
1708089714.8780 0.4351 0.0099 -0.9026
1708089714.8902 0.4319 0.0101 -0.9037
1708089714.9022 0.4323 0.0115 -0.8996
1708089714.9143 0.4322 0.0096 -0.9047
1708089714.9263 0.4309 0.0107 -0.9035
1708089714.9381 0.4311 0.0096 -0.9053
1708089714.9503 0.4320 0.0093 -0.9022
1708089714.9626 0.4328 0.0119 -0.8998
1708089714.9737 0.4320 0.0100 -0.9053
1708089714.9866 0.4354 0.0085 -0.9037
1708089714.9976 0.4342 0.0087 -0.8992
1708089715.0097 0.4332 0.0096 -0.9040
1708089715.0218 0.4331 0.0123 -0.9040
1708089715.0346 0.4313 0.0102 -0.9030
1708089715.0456 0.4334 0.0096 -0.9003
1708089715.0577 0.4332 0.0101 -0.9057
1708089715.0698 0.4345 0.0099 -0.9033
1708089715.0826 0.4337 0.0138 -0.9021
1708089715.0936 0.4329 0.0089 -0.9037
1708089715.1057 0.4318 0.0101 -0.9026
1708089715.1178 0.4319 0.0098 -0.9036
1708089715.1306 0.4337 0.0088 -0.9025
1708089715.1416 0.4326 0.0096 -0.9013
1708089715.1537 0.4326 0.0091 -0.9048
1708089715.1665 0.4344 0.0070 -0.8998
1708089715.1783 0.4323 0.0115 -0.9013
1708089715.1903 0.4312 0.0107 -0.9013
1708089715.2024 0.4337 0.0115 -0.9026
1708089715.2145 0.4334 0.0104 -0.9071
1708089715.2265 0.4308 0.0115 -0.9038
1708089715.2382 0.4328 0.0090 -0.9045
1708089715.2503 0.4347 0.0118 -0.9052
1708089715.2624 0.4324 0.0111 -0.9007
1708089715.2745 0.4329 0.0100 -0.9010
1708089715.2862 0.4356 0.0076 -0.9031
1708089715.2983 0.4340 0.0106 -0.9023
1708089715.3104 0.4318 0.0109 -0.9030
1708089715.3225 0.4327 0.0084 -0.9057
1708089715.3341 0.4312 0.0096 -0.9031
1708089715.3462 0.4306 0.0111 -0.9052
1708089715.3583 0.4327 0.0095 -0.9043
1708089715.3703 0.4344 0.0110 -0.9024
1708089715.3821 0.4339 0.0104 -0.9010
1708089715.3941 0.4323 0.0111 -0.9030
1708089715.4062 0.4344 0.0100 -0.9026
1708089715.4183 0.4333 0.0096 -0.9035
1708089715.4301 0.4348 0.0104 -0.9019
1708089715.4421 0.4313 0.0107 -0.9043
1708089715.4543 0.4332 0.0085 -0.9032
1708089715.4664 0.4324 0.0120 -0.9032
1708089715.4781 0.4323 0.0100 -0.9016
1708089715.4901 0.4325 0.0083 -0.9026
1708089715.5023 0.4324 0.0104 -0.9023
1708089715.5144 0.4341 0.0084 -0.9022
1708089715.5255 0.4334 0.0085 -0.9041
1708089715.5382 0.4339 0.0101 -0.9040
1708089715.5503 0.4321 0.0107 -0.9012
1708089715.5625 0.4325 0.0087 -0.9026
1708089715.5737 0.4314 0.0082 -0.9044
1708089715.5865 0.4316 0.0090 -0.9069
1708089715.5977 0.4335 0.0101 -0.9032
1708089715.6097 0.4337 0.0091 -0.9018
1708089715.6218 0.4336 0.0093 -0.9023
1708089715.6345 0.4302 0.0091 -0.9028
1708089715.6457 0.4314 0.0091 -0.9031
1708089715.6586 0.4314 0.0099 -0.9020
1708089715.6697 0.4318 0.0120 -0.9032
1708089715.6824 0.4328 0.0098 -0.9028
1708089715.6936 0.4313 0.0108 -0.9036
1708089715.7057 0.4339 0.0098 -0.9074
1708089715.7179 0.4333 0.0114 -0.9007
1708089715.7306 0.4316 0.0097 -0.9015
1708089715.7417 0.4325 0.0099 -0.9025
1708089715.7539 0.4326 0.0115 -0.9049
1708089715.7660 0.4326 0.0103 -0.9020
1708089715.7776 0.4331 0.0101 -0.9023
1708089715.7897 0.4323 0.0103 -0.9037
1708089715.8018 0.4320 0.0105 -0.9013
1708089715.8140 0.4352 0.0096 -0.9047
1708089715.8261 0.4324 0.0098 -0.9025
1708089715.8379 0.4338 0.0090 -0.9025
1708089715.8499 0.4323 0.0100 -0.9047
1708089715.8620 0.4323 0.0098 -0.9055
1708089715.8741 0.4324 0.0072 -0.9029
1708089715.8860 0.4301 0.0092 -0.9049
1708089715.8981 0.4338 0.0097 -0.9028
1708089715.9102 0.4312 0.0111 -0.9037
1708089715.9223 0.4346 0.0119 -0.9053
1708089715.9341 0.4321 0.0098 -0.9024
1708089715.9461 0.4315 0.0111 -0.9062
1708089715.9583 0.4310 0.0099 -0.9020
1708089715.9704 0.4329 0.0102 -0.9043
1708089715.9821 0.4325 0.0090 -0.9048
1708089715.9943 0.4323 0.0097 -0.9024
1708089716.0064 0.4328 0.0109 -0.9048
1708089716.0186 0.4345 0.0110 -0.9022
1708089716.0303 0.4316 0.0104 -0.9037
1708089716.0425 0.4318 0.0104 -0.9011
1708089716.0536 0.4307 0.0108 -0.9049
1708089716.0657 0.4323 0.0118 -0.9053
1708089716.0785 0.4313 0.0112 -0.9037
1708089716.0906 0.4301 0.0113 -0.9017
1708089716.1017 0.4310 0.0072 -0.9029
1708089716.1138 0.4328 0.0127 -0.9028
1708089716.1259 0.4337 0.0105 -0.9012
1708089716.1376 0.4335 0.0085 -0.9046
1708089716.1499 0.4331 0.0094 -0.9020
1708089716.1617 0.4317 0.0110 -0.9036
1708089716.1739 0.4319 0.0119 -0.9006
1708089716.1866 0.4323 0.0076 -0.9024
1708089716.1978 0.4324 0.0099 -0.9026
1708089716.2099 0.4339 0.0113 -0.9032
1708089716.2220 0.4319 0.0100 -0.9043
1708089716.2337 0.4319 0.0127 -0.9055
1708089716.2460 0.4312 0.0107 -0.9017
1708089716.2581 0.4325 0.0086 -0.9044
1708089716.2706 0.4317 0.0102 -0.9015
1708089716.2824 0.4317 0.0097 -0.9034
1708089716.2936 0.4323 0.0118 -0.9014
1708089716.3058 0.4341 0.0106 -0.9056
1708089716.3180 0.4348 0.0098 -0.9022
1708089716.3299 0.4350 0.0085 -0.9015
1708089716.3421 0.4319 0.0100 -0.9052
1708089716.3544 0.4311 0.0107 -0.8995
1708089716.3659 0.4315 0.0099 -0.9004
1708089716.3776 0.4319 0.0109 -0.9011
1708089716.3899 0.4311 0.0097 -0.9033
1708089716.4020 0.4328 0.0094 -0.9046
1708089716.4142 0.4330 0.0097 -0.9047
1708089716.4265 0.4323 0.0115 -0.9022
1708089716.4385 0.4314 0.0120 -0.9033
1708089716.4507 0.4315 0.0100 -0.9031
1708089716.4619 0.4337 0.0117 -0.9048
1708089716.4741 0.4313 0.0090 -0.9038
1708089716.4860 0.4333 0.0106 -0.9036
1708089716.4980 0.4326 0.0113 -0.9028
1708089716.5102 0.4331 0.0127 -0.9036
1708089716.5225 0.4333 0.0115 -0.9045
1708089716.5344 0.4304 0.0103 -0.9018
1708089716.5467 0.4327 0.0094 -0.9041
1708089716.5579 0.4335 0.0111 -0.9068
1708089716.5699 0.4329 0.0105 -0.9028
1708089716.5817 0.4357 0.0105 -0.9028
1708089716.5937 0.4335 0.0084 -0.9029
1708089716.6060 0.4327 0.0118 -0.9038
1708089716.6181 0.4328 0.0101 -0.9040
1708089716.6299 0.4319 0.0087 -0.8998
1708089716.6421 0.4332 0.0126 -0.9015
1708089716.6542 0.4327 0.0092 -0.9038
1708089716.6659 0.4335 0.0098 -0.9032
1708089716.6778 0.4338 0.0092 -0.9030
1708089716.6899 0.4319 0.0097 -0.9059
1708089716.7022 0.4307 0.0098 -0.9041
1708089716.7144 0.4339 0.0097 -0.8998
1708089716.7255 0.4330 0.0099 -0.9076
1708089716.7383 0.4328 0.0114 -0.9009
1708089716.7505 0.4324 0.0095 -0.9012
1708089716.7617 0.4299 0.0111 -0.9044
1708089716.7737 0.4311 0.0095 -0.9037
1708089716.7867 0.4338 0.0096 -0.9040
1708089716.7977 0.4307 0.0077 -0.9053
1708089716.8097 0.4323 0.0115 -0.9036
1708089716.8218 0.4309 0.0085 -0.9017
1708089716.8346 0.4341 0.0124 -0.9036
1708089716.8457 0.4338 0.0102 -0.9045
1708089716.8581 0.4338 0.0086 -0.9031
1708089716.8702 0.4316 0.0099 -0.9026
1708089716.8820 0.4323 0.0120 -0.9042
1708089716.8942 0.4302 0.0099 -0.9039
1708089716.9064 0.4328 0.0103 -0.9018
1708089716.9184 0.4324 0.0086 -0.9029
1708089716.9303 0.4330 0.0101 -0.9045
1708089716.9423 0.4319 0.0114 -0.9052
1708089716.9546 0.4345 0.0129 -0.9058
1708089716.9657 0.4344 0.0099 -0.9029
1708089716.9786 0.4333 0.0126 -0.9042
1708089716.9896 0.4324 0.0094 -0.9049
1708089717.0023 0.4323 0.0111 -0.9073
1708089717.0144 0.4346 0.0094 -0.9040
1708089717.0261 0.4338 0.0099 -0.9044
1708089717.0379 0.4334 0.0093 -0.9038
1708089717.0505 0.4306 0.0105 -0.9022
1708089717.0618 0.4336 0.0102 -0.9036
1708089717.0743 0.4323 0.0078 -0.9011
1708089717.0865 0.4320 0.0110 -0.9034
1708089717.0977 0.4318 0.0079 -0.9026
1708089717.1100 0.4335 0.0097 -0.9044
1708089717.1223 0.4330 0.0092 -0.9030
1708089717.1343 0.4334 0.0084 -0.9034
1708089717.1467 0.4313 0.0125 -0.9027
1708089717.1578 0.4331 0.0074 -0.9035
1708089717.1701 0.4312 0.0107 -0.9025
1708089717.1822 0.4330 0.0110 -0.9032
1708089717.1944 0.4333 0.0111 -0.9036
1708089717.2059 0.4342 0.0105 -0.9048
1708089717.2182 0.4312 0.0098 -0.9071
1708089717.2304 0.4306 0.0097 -0.9047
1708089717.2427 0.4350 0.0105 -0.9029
1708089717.2541 0.4330 0.0104 -0.9010
1708089717.2664 0.4318 0.0108 -0.9048
1708089717.2782 0.4323 0.0100 -0.9021
1708089717.2904 0.4321 0.0097 -0.9044
1708089717.3018 0.4333 0.0101 -0.9045
1708089717.3144 0.4344 0.0117 -0.9011
1708089717.3255 0.4315 0.0115 -0.9018
1708089717.3384 0.4319 0.0090 -0.9039
1708089717.3504 0.4312 0.0123 -0.9001
1708089717.3617 0.4337 0.0088 -0.9025
1708089717.3740 0.4317 0.0112 -0.9018
1708089717.3858 0.4335 0.0109 -0.9057
1708089717.3980 0.4308 0.0119 -0.9038
1708089717.4101 0.4329 0.0101 -0.9048
1708089717.4225 0.4336 0.0121 -0.9033
1708089717.4341 0.4350 0.0109 -0.9049
1708089717.4462 0.4335 0.0115 -0.9069
1708089717.4584 0.4325 0.0105 -0.9047
1708089717.4704 0.4331 0.0071 -0.9057
1708089717.4821 0.4338 0.0101 -0.9050
1708089717.4943 0.4327 0.0093 -0.8998
1708089717.5066 0.4351 0.0113 -0.9025
1708089717.5178 0.4349 0.0110 -0.9012
1708089717.5305 0.4319 0.0089 -0.9042
1708089717.5415 0.4305 0.0110 -0.9035
1708089717.5539 0.4330 0.0090 -0.9017
1708089717.5660 0.4344 0.0116 -0.9013
1708089717.5780 0.4322 0.0099 -0.9025
1708089717.5901 0.4330 0.0099 -0.9052
1708089717.6023 0.4325 0.0089 -0.9040
1708089717.6144 0.4328 0.0103 -0.8998
1708089717.6266 0.4326 0.0109 -0.9017
1708089717.6383 0.4336 0.0113 -0.9033
1708089717.6507 0.4308 0.0111 -0.9027
1708089717.6625 0.4332 0.0089 -0.9030
1708089717.6748 0.4328 0.0119 -0.9026
1708089717.6864 0.4311 0.0098 -0.9015
1708089717.6987 0.4335 0.0101 -0.9039
1708089717.7096 0.4351 0.0077 -0.9019
1708089717.7219 0.4315 0.0114 -0.9032
1708089717.7336 0.4339 0.0114 -0.9007
1708089717.7457 0.4334 0.0115 -0.9048
1708089717.7578 0.4320 0.0108 -0.9033
1708089717.7701 0.4320 0.0099 -0.9018
1708089717.7819 0.4337 0.0099 -0.9021
1708089717.7942 0.4340 0.0110 -0.9024
1708089717.8062 0.4316 0.0108 -0.9059
1708089717.8184 0.4341 0.0096 -0.9031
1708089717.8301 0.4303 0.0085 -0.9031
1708089717.8423 0.4331 0.0109 -0.9018
1708089717.8544 0.4318 0.0102 -0.9013
1708089717.8665 0.4308 0.0108 -0.9020
1708089717.8783 0.4309 0.0108 -0.9039
1708089717.8904 0.4325 0.0105 -0.9029
1708089717.9024 0.4320 0.0097 -0.9031
1708089717.9146 0.4341 0.0108 -0.9049
1708089717.9257 0.4318 0.0092 -0.9032
1708089717.9386 0.4306 0.0093 -0.9006
1708089717.9496 0.4315 0.0117 -0.9019
1708089717.9617 0.4340 0.0083 -0.9018
1708089717.9739 0.4329 0.0100 -0.9045
1708089717.9857 0.4334 0.0112 -0.9057
1708089717.9977 0.4333 0.0092 -0.9023
1708089718.0100 0.4316 0.0114 -0.9040
1708089718.0220 0.4335 0.0090 -0.9056
1708089718.0339 0.4333 0.0093 -0.9035
1708089718.0461 0.4327 0.0107 -0.9039
1708089718.0583 0.4310 0.0098 -0.9036
1708089718.0704 0.4333 0.0096 -0.9026
1708089718.0824 0.4331 0.0086 -0.9055
1708089718.0945 0.4314 0.0085 -0.9026
1708089718.1067 0.4333 0.0107 -0.9055
1708089718.1177 0.4305 0.0089 -0.9023
1708089718.1304 0.4326 0.0088 -0.9044
1708089718.1425 0.4310 0.0108 -0.9030
1708089718.1546 0.4346 0.0102 -0.9021
1708089718.1663 0.4329 0.0110 -0.9036
1708089718.1780 0.4325 0.0083 -0.9046
1708089718.1900 0.4332 0.0109 -0.9053
1708089718.2023 0.4317 0.0107 -0.9036
1708089718.2144 0.4342 0.0090 -0.9037
1708089718.2266 0.4350 0.0090 -0.9023
1708089718.2383 0.4323 0.0096 -0.9045
1708089718.2504 0.4313 0.0081 -0.9037
1708089718.2615 0.4320 0.0102 -0.9058
1708089718.2737 0.4332 0.0130 -0.9025
1708089718.2857 0.4327 0.0095 -0.9024
1708089718.2979 0.4332 0.0127 -0.9049
1708089718.3101 0.4321 0.0075 -0.9040
1708089718.3223 0.4328 0.0098 -0.9015
1708089718.3341 0.4332 0.0107 -0.9036
1708089718.3464 0.4330 0.0101 -0.9028
1708089718.3585 0.4340 0.0074 -0.9024
1708089718.3707 0.4327 0.0119 -0.9044
1708089718.3815 0.4322 0.0112 -0.9007
1708089718.3937 0.4318 0.0084 -0.9026
1708089718.4060 0.4324 0.0104 -0.9028
1708089718.4182 0.4325 0.0099 -0.9037
1708089718.4300 0.4329 0.0119 -0.9034
1708089718.4423 0.4340 0.0114 -0.9052
1708089718.4545 0.4311 0.0107 -0.9044
1708089718.4668 0.4319 0.0083 -0.9025
1708089718.4776 0.4327 0.0088 -0.9035
1708089718.4897 0.4335 0.0103 -0.8991
1708089718.5021 0.4335 0.0091 -0.9008
1708089718.5144 0.4315 0.0097 -0.9012
1708089718.5256 0.4302 0.0124 -0.9038
1708089718.5385 0.4336 0.0096 -0.9019
1708089718.5506 0.4347 0.0122 -0.9020
1708089718.5628 0.4326 0.0093 -0.9020
1708089718.5739 0.4316 0.0104 -0.9028
1708089718.5857 0.4310 0.0084 -0.9035
1708089718.5980 0.4333 0.0096 -0.9038
1708089718.6102 0.4332 0.0088 -0.9011
1708089718.6223 0.4319 0.0087 -0.9015
1708089718.6341 0.4321 0.0102 -0.9021
1708089718.6462 0.4323 0.0099 -0.9024
1708089718.6580 0.4313 0.0110 -0.9043
1708089718.6703 0.4326 0.0096 -0.9020
1708089718.6821 0.4341 0.0104 -0.9044
1708089718.6942 0.4331 0.0115 -0.9044
1708089718.7065 0.4334 0.0129 -0.9026
1708089718.7177 0.4355 0.0101 -0.9029
1708089718.7306 0.4324 0.0105 -0.9013
1708089718.7417 0.4323 0.0120 -0.9056
1708089718.7556 0.4341 0.0090 -0.9018
1708089718.7670 0.4327 0.0090 -0.9063
1708089718.7810 0.4326 0.0097 -0.9044
1708089718.7907 0.4324 0.0091 -0.9044
1708089718.8038 0.4309 0.0105 -0.9000
1708089718.8151 0.4336 0.0094 -0.9029
1708089718.8282 0.4346 0.0105 -0.9019
1708089718.8391 0.4336 0.0087 -0.9019
1708089718.8515 0.4348 0.0097 -0.9015
1708089718.8618 0.4320 0.0107 -0.9051
1708089718.8740 0.4329 0.0106 -0.9032
1708089718.8859 0.4320 0.0095 -0.9024
